Untitled – Introduction to Data Science (2)
…
# Use pivot_longer() to convert wide data to long format
data_long <- data_ex1 %>% pivot_longer(cols = c("x", "y"), 
                                       names_to = "Variable", 
                                       values_to = "Value")

# Print the long format data
print(data_long)

# A tibble: 24 × 4
   ID1   ID2   Variable Value
   <chr> <chr> <chr>    <int>
 1 A     a     x            1
 2 A     a     y           21
 3 B     a     x            2
 4 B     a     y           22
 5 C     a     x            3
 6 C     a     y           23
 7 D     a     x            4
 8 D     a     y           24
 9 A     b     x            5
10 A     b     y           25
# ℹ 14 more rows
…
