Multiple Regression – Introduction to Data Science (2)
…
We will work only with types 1 and 2

wine2 <- wine %>%
  filter(Type != "type3") %>%
  mutate(Type_binary = as.numeric(Type == "type1")) %>% 
  as_tibble
wine2

# A tibble: 130 × 15
   Type  Alcohol Malic   Ash Alcalinity Magnesium Phenols Flavanoids
   <chr>   <dbl> <dbl> <dbl>      <dbl>     <dbl>   <dbl>      <dbl>
 1 type1    14.2  1.71  2.43       15.6       127    2.8        3.06
 2 type1    13.2  1.78  2.14       11.2       100    2.65       2.76
 3 type1    13.2  2.36  2.67       18.6       101    2.8        3.24
 4 type1    14.4  1.95  2.5        16.8       113    3.85       3.49
 5 type1    13.2  2.59  2.87       21         118    2.8        2.69
 6 type1    14.2  1.76  2.45       15.2       112    3.27       3.39
 7 type1    14.4  1.87  2.45       14.6        96    2.5        2.52
 8 type1    14.1  2.15  2.61       17.6       121    2.6        2.51
 9 type1    14.8  1.64  2.17       14          97    2.8        2.98
10 type1    13.9  1.35  2.27       16          98    2.98       3.15
# ℹ 120 more rows
# ℹ 7 more variables: Nonflavanoid.phenols <dbl>, Proanth <dbl>, Color <dbl>,
#   Hue <dbl>, OD <dbl>, Proline <dbl>, Type_binary <dbl>
…
