Sampling Principles and Strategies – Introduction to Data Science (2)
…
Ensures that specific groups are represented, sometimes even proportionally, in the sample.

Allows comparisons to be made between strata, if necessary. For example, a stratified sample allows you to easily compare the mean GPA of Honors students to the mean GPA of non-Honors students.

Weaknesses

Requires prior knowledge of the population. You have to know something about the population to be able to split into strata!

Cluster Sampling

Cluster sampling is a sampling method used when natural groups are evident in the population. The clusters should all be to similar each other: each cluster should be a small scale representation of the population. To take a cluster sample, a random sample of the clusters is chosen. The elements of the randomly chosen clusters make up the sample.

Let’s assume that we have a cluster variable (with clusters 1-4) in the FakeSchool data.

# A tibble: 28 × 6
   Students Sex   class   GPA Honors cluster
   <fct>    <fct> <fct> <dbl> <fct>    <int>
 1 Alice    F     Fr     3.8  Yes          1
 2 Brad     M     Fr     2.6  Yes          1
 3 Caleb    M     Fr     2.25 No           2
 4 Daisy    F     Fr     2.1  No           4
 5 Faye     F     Fr     2    No           2
 6 Eva      F     Fr     1.8  No           4
 7 Georg    M     Fr     1.4  No           2
 8 Andrea   F     So     4    Yes          2
 9 Betsy    F     So     4    Yes          1
10 Chris    M     So     4    Yes          1
# ℹ 18 more rows
…
❌ Relies on social networks, which can lead to bias since participants are likely to refer similar individuals.

Example: Global survey shows planners use widely varying sea-level rise projections for coastal adaptation

Collaborating researchers known to be involved in sea level rise planning were contacted, sometimes targeting specific regions and cities.

Regional leads sent emails to their contact lists.

More details for this snowball sampling method can be found here.

Analysis

sl_planning_dat

# A tibble: 21 × 4
   Continent relative     n group
   <fct>        <dbl> <dbl> <chr>
 1 Asia          9.09     1 B    
 2 Europe        5        1 D    
 3 Oceania       3.57     1 B    
 4 Africa       33.3      2 C    
 5 Asia         18.2      2 C    
 6 Oceania       7.14     2 C    
 7 Oceania      10.7      3 D    
 8 Africa       66.7      4 A    
 9 Europe       20        4 C    
10 Europe       25        5 B    
# ℹ 11 more rows
…
