Supervised and Unsupervised Learning – Introduction to Data Science (2)
…
Supervised learning problems can be further grouped into regression and classification problems:

Regression: A regression problem is when the output variable is a real value, such as “dollars” or “weight”.

Classification: A classification problem is when the output variable is a category, such as “red” or “blue” or “disease” and “no disease”.

We saw these supervised learning methods in the predictive analytics section.

Supervised Learning - Regression

US Department of Health and Human Services, Centers for Disease Control and Prevention collect information on births recorded in the country. We have data which are a random sample of 1,000 births from 2014. Variables of interest include length of pregnancy in weeks (weeks), mother’s age in years (mage), the sex of the baby (sex), smoking status of the mother (habit), and the number of hospital (visits) visits during pregnancy.

births14

# A tibble: 1,000 × 13
    fage  mage mature     weeks premie visits gained weight lowbirthweight sex  
   <int> <dbl> <chr>      <dbl> <chr>   <dbl>  <dbl>  <dbl> <chr>          <chr>
 1    34    34 younger m…    37 full …     14     28   6.96 not low        male 
 2    36    31 younger m…    41 full …     12     41   8.86 not low        fema…
 3    37    36 mature mom    37 full …     10     28   7.51 not low        fema…
 4    NA    16 younger m…    38 full …     NA     29   6.19 not low        male 
 5    32    31 younger m…    36 premie     12     48   6.75 not low        fema…
 6    32    26 younger m…    39 full …     14     45   6.69 not low        fema…
 7    37    36 mature mom    36 premie     10     20   6.13 not low        fema…
 8    29    24 younger m…    40 full …     13     65   6.74 not low        male 
 9    30    32 younger m…    39 full …     15     25   8.94 not low        fema…
10    29    26 younger m…    39 full …     11     22   9.12 not low        male 
# ℹ 990 more rows
# ℹ 3 more variables: habit <chr>, marital <chr>, whitemom <chr>
…
# A tibble: 1 × 2
  mean_error mean_abs_error
       <dbl>          <dbl>
1         NA             NA

The model is trying to “learn” about the relationship between the price of a painting and other painting attributes. If the model does a good job at “learning” then knowing various painting attributes/features can predict what their price will be. This is a supervised learning method because the accuracy of the model’s predictive performance can be evaluated.

Supervised Learning - Classification

We saw examples of using logistic regression previously. Let’s consider another example here. The ‘Cryotherapy’ dataset gives the results of a cryotherapy procedure (1 = successful, 0 = unsuccesful). In this case, our outcome of interest is the success category — it is what we want to predict.

cryo_dat

# A tibble: 90 × 6
     sex   age  Time  Type  Area Result
   <dbl> <dbl> <dbl> <dbl> <dbl>  <dbl>
 1     1    35 12        1   100      0
 2     1    29  7        1    96      1
 3     1    50  8        3   132      1
 4     1    32 11.8      3   750      0
 5     1    67  9.25     1    42      0
 6     1    41  8        2    20      1
 7     1    36 11        1     8      0
 8     1    59  3.5      3    20      0
 9     1    20  4.5      1     6      1
10     2    34 11.2      3   150      0
# ℹ 80 more rows
…
The old faithful dataset contains waiting times between eruptions and the duration of the eruption. Can you see an possible clusters in the data?

old_faithful

# A tibble: 99 × 2
   eruptions waiting
       <dbl>   <dbl>
 1      3.6       79
 2      1.8       54
 3      3.33      74
 4      2.28      62
 5      4.53      85
 6      2.88      55
 7      4.7       88
 8      3.6       85
 9      1.95      51
10      4.35      85
# ℹ 89 more rows
…
Lets apply the k-means algorithm:

kmean_res <- kmeans(old_faithful, centers = 2)

old_faithful_res <- old_faithful %>%
                      mutate(cluster = kmean_res$cluster)
old_faithful_res

# A tibble: 99 × 3
   eruptions waiting cluster
       <dbl>   <dbl>   <int>
 1      3.6       79       1
 2      1.8       54       2
 3      3.33      74       1
 4      2.28      62       2
 5      4.53      85       1
 6      2.88      55       2
 7      4.7       88       1
 8      3.6       85       1
 9      1.95      51       2
10      4.35      85       1
# ℹ 89 more rows
…
