Introduction to Text Analysis – Introduction to Data Science (2)
…
# A tibble: 7 × 2
   line text                                  
  <int> <chr>                                 
1     1 Take me out tonight                   
2     2 Where there's music and there's people
3     3 And they're young and alive           
4     4 Driving in your car                   
5     5 I never never want to go home         
6     6 Because I haven't got one             
7     7 Anymore                               

text_df %>%
  unnest_tokens(word, text)

# A tibble: 32 × 2
    line word   
   <int> <chr>  
 1     1 take   
 2     1 me     
 3     1 out    
 4     1 tonight
 5     2 where  
 6     2 there's
 7     2 music  
 8     2 and    
 9     2 there's
10     2 people 
# ℹ 22 more rows
…
Tidy up your lyrics

tidy_spice_lyrics <- spice_lyrics %>% 
                      unnest_tokens(word,line) %>% 
                      select(word, track_number, song_name)
tidy_spice_lyrics 

# A tibble: 4,609 × 3
   word   track_number song_name
   <chr>         <dbl> <chr>    
 1 hahaha            1 Wannabe  
 2 yo                1 Wannabe  
 3 i'll              1 Wannabe  
 4 tell              1 Wannabe  
 5 you               1 Wannabe  
 6 what              1 Wannabe  
 7 i                 1 Wannabe  
 8 want              1 Wannabe  
 9 what              1 Wannabe  
10 i                 1 Wannabe  
# ℹ 4,599 more rows

What are the most common words?

tidy_spice_lyrics %>%
  count(word) %>%
  arrange(desc(n))

# A tibble: 574 × 2
   word      n
   <chr> <int>
 1 you     322
 2 it      226
 3 i       134
 4 me      108
 5 to       84
 6 can't    81
 7 if       69
 8 and      67
 9 a        63
10 love     63
# ℹ 564 more rows

Stop words

In computing, stop words are words which are filtered out before or after processing of natural language data (text). They usually refer to the most common words in a language, but there is not a single list of stop words used by all natural language processing tools.

library(stopwords)
get_stopwords(language = "en", source = "snowball")

# A tibble: 175 × 2
   word      lexicon 
   <chr>     <chr>   
 1 i         snowball
 2 me        snowball
 3 my        snowball
 4 myself    snowball
 5 we        snowball
 6 our       snowball
 7 ours      snowball
 8 ourselves snowball
 9 you       snowball
10 your      snowball
# ℹ 165 more rows
…
[1] "snowball"      "stopwords-iso" "misc"          "smart"        
[5] "marimo"        "ancient"       "nltk"          "perseus"      

What are the most common words when we exclude stop words?

common_spice_lyrics <- tidy_spice_lyrics %>%
                        anti_join(get_stopwords(source = "smart")) %>%
                        count(word) %>%
                        arrange(desc(n))

Joining with `by = join_by(word)`

common_spice_lyrics

# A tibble: 384 × 2
   word       n
   <chr>  <int>
 1 love      63
 2 wanna     61
 3 dance     60
 4 time      36
 5 hey       35
 6 baby      34
 7 lover     33
 8 make      33
 9 naked     29
10 groove    22
# ℹ 374 more rows
…
Sentiment Analysis

One way to analyze the sentiment of a text is to consider the text as a combination of its individual words and the sentiment content of the whole text as the sum of the sentiment content of the individual words.

Sentiment lexicons

get_sentiments("bing")

# A tibble: 6,786 × 2
   word        sentiment
   <chr>       <chr>    
 1 2-faces     negative 
 2 abnormal    negative 
 3 abolish     negative 
 4 abominable  negative 
 5 abominably  negative 
 6 abominate   negative 
 7 abomination negative 
 8 abort       negative 
 9 aborted     negative 
10 aborts      negative 
# ℹ 6,776 more rows

You can get other lexicons with the tidytext package. The “afinn” lexicon returns a numeric value instead of a sentiment. The value is an integer between minus five (negative) and plus five (positive).

get_sentiments("afinn")

# A tibble: 2,477 × 2
   word       value
   <chr>      <dbl>
 1 abandon       -2
 2 abandoned     -2
 3 abandons      -2
 4 abducted      -2
 5 abduction     -2
 6 abductions    -2
 7 abhor         -3
 8 abhorred      -3
 9 abhorrent     -3
10 abhors        -3
# ℹ 2,467 more rows

Sentiments in Spice Girls lyrics

We’ll use the “bing” lexicon.

sentiment_spice_lyrics <- tidy_spice_lyrics %>%
                            anti_join(get_stopwords(source = "smart")) %>%
                            inner_join(get_sentiments("bing")) %>%
                            count(sentiment, word) %>%
                            arrange(desc(n))
sentiment_spice_lyrics

# A tibble: 69 × 3
   sentiment word       n
   <chr>     <chr>  <int>
 1 positive  love      63
 2 positive  lover     33
 3 positive  loving    22
 4 negative  shake     18
 5 positive  good      18
 6 positive  trust     18
 7 negative  funny     17
 8 positive  yay       17
 9 positive  whoa      16
10 positive  easy      12
# ℹ 59 more rows
…
